{
  "mongoDBUrl": "mongodb://oron570:o5709572r@ds021299.mlab.com:21299/mongo_test",
  "COLLECTIONS": {
    "ACCOUNTS": "accounts",
    "RECOVERY_TOKENS":"recovery_tokens",
    "USERS": "users",
    "ADMINS": "admins",
    "TOKEN_ACCOUNTS": "tokenAccounts",
    "ADMIN_TOKENS": "adminTokens",
    "TOPICS": "topics",
    "ALERTS": "alerts",
    "CLASS": "class"
  },
  "PATHS": {
    "guest": {
      "logIn": "logIn",
      "signUp": "signUp",
      "passwordRecovery": "passwordRecovery",
      "authenticateRecovery": "authenticateRecovery"
    },
    "admin": {
      "adminHome" : "adminHome",
      "sendAlerts" : "sendAlerts",
      "changeEmail" : "changeEmail",
      "changePassword" : "changePassword",
      "manageUsers" : "manageUsers",
      "editProfile" : "editProfile",
      "autoAlerts" : "autoAlerts"

    }
  },
    "ROLES": {
      "ADMIN": "admin",
      "GUEST": "guest"
    },
  "APP_ENTRIES" : {
    "admin" : "adminHome",
    "guest" : "logIn"
  }
}